…
    ## The following object is masked from 'package:base':
    ## 
    ##     date

``` r
theme_set(theme_minimal())
# load data
scdbv_mod <- read_csv("data/SCDB_2018_01_justiceCentered_Citation.csv", col_types = cols(docket = col_character()))
scdbv_leg <- read_csv("data/SCDB_Legacy_04_justiceCentered_Citation.csv", col_types = cols(docket = col_character(), adminAction = col_number(), adminActionState = col_number()))
scdbv_mod
```

    ## # A tibble: 79,612 x 61
    ##    caseId  docketId  caseIssuesId voteId  dateDecision decisionType usCite
    ##    <chr>   <chr>     <chr>        <chr>   <chr>               <int> <chr> 
    ##  1 1946-0… 1946-001… 1946-001-01… 1946-0… 11/18/1946              1 329 U…
    ##  2 1946-0… 1946-001… 1946-001-01… 1946-0… 11/18/1946              1 329 U…
    ##  3 1946-0… 1946-001… 1946-001-01… 1946-0… 11/18/1946              1 329 U…
    ##  4 1946-0… 1946-001… 1946-001-01… 1946-0… 11/18/1946              1 329 U…
    ##  5 1946-0… 1946-001… 1946-001-01… 1946-0… 11/18/1946              1 329 U…
    ##  6 1946-0… 1946-001… 1946-001-01… 1946-0… 11/18/1946              1 329 U…
    ##  7 1946-0… 1946-001… 1946-001-01… 1946-0… 11/18/1946              1 329 U…
    ##  8 1946-0… 1946-001… 1946-001-01… 1946-0… 11/18/1946              1 329 U…
    ##  9 1946-0… 1946-001… 1946-001-01… 1946-0… 11/18/1946              1 329 U…
    ## 10 1946-0… 1946-002… 1946-002-01… 1946-0… 11/18/1946              1 329 U…
    ## # ... with 79,602 more rows, and 54 more variables: sctCite <chr>,
    ## #   ledCite <chr>, lexisCite <chr>, term <int>, naturalCourt <int>,
    ## #   chief <chr>, docket <chr>, caseName <chr>, dateArgument <chr>,
    ## #   dateRearg <chr>, petitioner <int>, petitionerState <int>,
    ## #   respondent <int>, respondentState <int>, jurisdiction <int>,
    ## #   adminAction <int>, adminActionState <int>, threeJudgeFdc <int>,
    ## #   caseOrigin <int>, caseOriginState <int>, caseSource <int>,
    ## #   caseSourceState <int>, lcDisagreement <int>, certReason <int>,
    ## #   lcDisposition <int>, lcDispositionDirection <int>,
…
``` r
scdbv_leg
```

    ## # A tibble: 172,213 x 61
    ##    caseId  docketId  caseIssuesId voteId  dateDecision decisionType usCite
    ##    <chr>   <chr>     <chr>        <chr>   <chr>               <int> <chr> 
    ##  1 1791-0… 1791-001… 1791-001-01… 1791-0… 8/3/1791                6 2 U.S…
    ##  2 1791-0… 1791-001… 1791-001-01… 1791-0… 8/3/1791                6 2 U.S…
    ##  3 1791-0… 1791-001… 1791-001-01… 1791-0… 8/3/1791                6 2 U.S…
    ##  4 1791-0… 1791-001… 1791-001-01… 1791-0… 8/3/1791                6 2 U.S…
    ##  5 1791-0… 1791-001… 1791-001-01… 1791-0… 8/3/1791                6 2 U.S…
    ##  6 1791-0… 1791-002… 1791-002-01… 1791-0… 8/3/1791                2 2 U.S…
    ##  7 1791-0… 1791-002… 1791-002-01… 1791-0… 8/3/1791                2 2 U.S…
    ##  8 1791-0… 1791-002… 1791-002-01… 1791-0… 8/3/1791                2 2 U.S…
    ##  9 1791-0… 1791-002… 1791-002-01… 1791-0… 8/3/1791                2 2 U.S…
    ## 10 1791-0… 1791-002… 1791-002-01… 1791-0… 8/3/1791                2 2 U.S…
    ## # ... with 172,203 more rows, and 54 more variables: sctCite <chr>,
    ## #   ledCite <chr>, lexisCite <chr>, term <int>, naturalCourt <int>,
    ## #   chief <chr>, docket <chr>, caseName <chr>, dateArgument <chr>,
    ## #   dateRearg <chr>, petitioner <int>, petitionerState <int>,
    ## #   respondent <int>, respondentState <int>, jurisdiction <int>,
    ## #   adminAction <dbl>, adminActionState <dbl>, threeJudgeFdc <int>,
    ## #   caseOrigin <int>, caseOriginState <int>, caseSource <int>,
    ## #   caseSourceState <int>, lcDisagreement <int>, certReason <int>,
    ## #   lcDisposition <int>, lcDispositionDirection <int>,
…
